zavRad1
…
  mutate(numberofWinsHome = lag(cumsum(winHome), default = 0),
         CumHomeGames = row_number() - 1,
         HomeTeamPCT = ifelse(CumHomeGames > 0, numberofWinsHome / CumHomeGames, NA)) %>%
  ungroup() %>%
  group_by(team_id_away, season_id) %>%
  arrange(game_date) %>%
  mutate(winAway = ifelse(wl_away == "W", 1, 0)) %>%
  mutate(numberofWinsAway = lag(cumsum(winAway), default = 0),
         CumAwayGames = row_number() - 1,
         AwayTeamPCT = ifelse(CumAwayGames > 0, numberofWinsAway / CumAwayGames, NA)) %>%
  ungroup() %>%
  arrange(RowID) %>%
  select(-RowID, -winHome, -CumHomeGames, -winAway, -CumAwayGames)

## # A tibble: 41,853 × 56
##    season_id team_id_home team_abbreviation_home team_name_home         game_id 
##        <dbl>        <dbl> <chr>                  <chr>                  <chr>   
##  1     21985   1610612737 ATL                    Atlanta Hawks          0028500…
##  2     21985   1610612765 DET                    Detroit Pistons        0028500…
##  3     21985   1610612744 GOS                    Golden State Warriors  0028500…
##  4     21985   1610612751 NJN                    New Jersey Nets        0028500…
##  5     21985   1610612741 CHI                    Chicago Bulls          0028500…
##  6     21985   1610612757 POR                    Portland Trail Blazers 0028500…
##  7     21985   1610612739 CLE                    Cleveland Cavaliers    0028500…
##  8     21985   1610612752 NYK                    New York Knicks        0028500…
##  9     21985   1610612741 CHI                    Chicago Bulls          0028500…
## 10     21985   1610612742 DAL                    Dallas Mavericks       0028500…
## # ℹ 41,843 more rows
## # ℹ 51 more variables: game_date <dttm>, matchup_home <chr>, wl_home <chr>,
## #   fgm_home <dbl>, fga_home <dbl>, fg_pct_home <dbl>, fg3m_home <dbl>,
## #   fg3a_home <dbl>, fg3_pct_home <dbl>, ftm_home <dbl>, fta_home <dbl>,
## #   ft_pct_home <dbl>, oreb_home <dbl>, dreb_home <dbl>, reb_home <dbl>,
## #   ast_home <dbl>, stl_home <dbl>, blk_home <dbl>, tov_home <dbl>,
## #   pf_home <dbl>, pts_home <dbl>, plus_minus_home <dbl>, team_id_away <dbl>, …
…
tail(nbaRS2, 1000)

## # A tibble: 1,000 × 88
##    season_id team_id_home team_abbreviation_home team_name_home         game_id 
##        <dbl>        <dbl> <chr>                  <chr>                  <chr>   
##  1     22022   1610612744 GSW                    Golden State Warriors  0022200…
##  2     22022   1610612747 LAL                    Los Angeles Lakers     0022200…
##  3     22022   1610612764 WAS                    Washington Wizards     0022200…
##  4     22022   1610612739 CLE                    Cleveland Cavaliers    0022200…
##  5     22022   1610612754 IND                    Indiana Pacers         0022200…
##  6     22022   1610612737 ATL                    Atlanta Hawks          0022200…
##  7     22022   1610612755 PHI                    Philadelphia 76ers     0022200…
##  8     22022   1610612757 POR                    Portland Trail Blazers 0022200…
##  9     22022   1610612746 LAC                    LA Clippers            0022200…
## 10     22022   1610612751 BKN                    Brooklyn Nets          0022200…
## # ℹ 990 more rows
## # ℹ 83 more variables: game_date <dttm>, matchup_home <chr>, wl_home <chr>,
## #   fgm_home <dbl>, fga_home <dbl>, fg_pct_home <dbl>, fg3m_home <dbl>,
## #   fg3a_home <dbl>, fg3_pct_home <dbl>, ftm_home <dbl>, fta_home <dbl>,
## #   ft_pct_home <dbl>, oreb_home <dbl>, dreb_home <dbl>, reb_home <dbl>,
## #   ast_home <dbl>, stl_home <dbl>, blk_home <dbl>, tov_home <dbl>,
## #   pf_home <dbl>, pts_home <dbl>, plus_minus_home <dbl>, team_id_away <dbl>, …
…
Sad kad je to riješeno, napravimo ta dva stupca.

nbaRS2 %>% group_by(matchup_home) %>% 
  mutate(
    homeH2HWins = lag(slide_dbl(ifelse(wl_home == "W", 1, 0), sum, .before = 9, .complete = FALSE), default = 0),
    awayH2HWins = lag(slide_dbl(ifelse(wl_home == "L", 1, 0), sum, .before = 9, .complete = FALSE), default = 0)
  ) %>%
  ungroup() -> nbaRS3

Najčešći matchupi

nbaRS3 %>% count(matchup_home) %>% arrange(desc(n))

## # A tibble: 928 × 2
##    matchup_home     n
##    <chr>        <int>
##  1 DAL vs. SAS     81
##  2 NYK vs. PHI     81
##  3 BOS vs. BKN     80
##  4 CHI vs. MIL     80
##  5 CLE vs. IND     80
##  6 HOU vs. DAL     80
##  7 CHI vs. DET     79
##  8 CLE vs. DET     79
##  9 DAL vs. HOU     79
## 10 DET vs. CHI     79
## # ℹ 918 more rows

Koliko često pobjeđuje momčad koja pogodi barem 25 trica kod
kuće?

Odgovor: gotovo uvijek, samo jednom je takva momčad izgubila (LA
Clippersi protiv Sacramento Kingsa).

nbaRS3 %>% filter(fg3m_home >= 25) %>% select(game_date, matchup_home, wl_home, fg3m_home)

## # A tibble: 24 × 4
##    game_date           matchup_home wl_home fg3m_home
##    <dttm>              <chr>        <chr>       <dbl>
##  1 2018-12-19 00:00:00 HOU vs. WAS  W              26
##  2 2019-01-19 00:00:00 HOU vs. LAL  W              25
##  3 2019-04-07 00:00:00 HOU vs. PHX  W              27
##  4 2019-11-30 00:00:00 HOU vs. ATL  W              25
##  5 2020-02-08 00:00:00 MIN vs. LAC  W              26
##  6 2020-08-01 00:00:00 LAC vs. NOP  W              25
##  7 2021-02-10 00:00:00 CHI vs. NOP  W              25
##  8 2021-02-12 00:00:00 DAL vs. NOP  W              25
##  9 2021-02-22 00:00:00 UTA vs. CHA  W              28
## 10 2021-04-03 00:00:00 UTA vs. ORL  W              26
## # ℹ 14 more rows
…
nbaRSFinal %>% count(season_id)

## # A tibble: 33 × 2
##    season_id     n
##        <dbl> <int>
##  1     21987     2
##  2     21988     3
##  3     21989     4
##  4     21990     7
##  5     21991    14
##  6     21992    20
##  7     21993    20
##  8     21994    27
##  9     21995    29
## 10     21996    29
## # ℹ 23 more rows
…
Modeli za predviđanje

Bez prvih 5

nbaRS0 <- nbaRS4 %>% filter(gamesPlayedHome > 5) %>% select(team_name_home, team_name_away, game_date, matchup_home, homeTeamWinPCT, homeFGPCT, homeFG3PCT, homeFTPCT, oRebAvgHome, dRebAvgHome, rebAvgHome, astAvgHome, stlAvgHome, blkAvgHome, tovAvgHome, pfAvgHome, plus_minusAvgHome, awayTeamWinPCT, awayFGPCT, awayFG3PCT, awayFTPCT, oRebAvgAway, dRebAvgAway, rebAvgAway, astAvgAway, stlAvgAway, blkAvgAway, tovAvgAway, pfAvgAway, plus_minusAvgAway, homeH2HWins, awayH2HWins, winner)
nbaRS0

## # A tibble: 38,648 × 33
##    team_name_home team_name_away game_date           matchup_home homeTeamWinPCT
##    <chr>          <chr>          <dttm>              <chr>                 <dbl>
##  1 Milwaukee Buc… San Antonio S… 1985-11-05 00:00:00 MIL vs. SAS           0.667
##  2 Los Angeles L… Denver Nuggets 1985-11-08 00:00:00 LAL vs. DEN           0.833
##  3 Portland Trai… Seattle Super… 1985-11-08 00:00:00 POR vs. SEA           0.714
##  4 Dallas Maveri… Houston Rocke… 1985-11-09 00:00:00 DAL vs. HOU           0.333
##  5 New Jersey Ne… Milwaukee Buc… 1985-11-09 00:00:00 BKN vs. MIL           0.667
##  6 Detroit Pisto… Boston Celtics 1985-11-09 00:00:00 DET vs. BOS           0.714
##  7 Portland Trai… Cleveland Cav… 1985-11-10 00:00:00 POR vs. CLE           0.75 
##  8 Golden State … Sacramento Ki… 1985-11-10 00:00:00 GSW vs. SAC           0.333
##  9 San Antonio S… New Jersey Ne… 1985-11-11 00:00:00 SAS vs. BKN           0.5  
## 10 Detroit Pisto… Washington Bu… 1985-11-12 00:00:00 DET vs. WAS           0.625
## # ℹ 38,638 more rows
## # ℹ 28 more variables: homeFGPCT <dbl>, homeFG3PCT <dbl>, homeFTPCT <dbl>,
## #   oRebAvgHome <dbl>, dRebAvgHome <dbl>, rebAvgHome <dbl>, astAvgHome <dbl>,
## #   stlAvgHome <dbl>, blkAvgHome <dbl>, tovAvgHome <dbl>, pfAvgHome <dbl>,
## #   plus_minusAvgHome <dbl>, awayTeamWinPCT <dbl>, awayFGPCT <dbl>,
## #   awayFG3PCT <dbl>, awayFTPCT <dbl>, oRebAvgAway <dbl>, dRebAvgAway <dbl>,
## #   rebAvgAway <dbl>, astAvgAway <dbl>, stlAvgAway <dbl>, blkAvgAway <dbl>, …

Bez prvih 10

nbaRS10 <- nbaRS4 %>% filter(gamesPlayedHome > 10) %>% select(team_name_home, team_name_away, game_date, matchup_home, homeTeamWinPCT, homeFGPCT, homeFG3PCT, homeFTPCT, oRebAvgHome, dRebAvgHome, rebAvgHome, astAvgHome, stlAvgHome, blkAvgHome, tovAvgHome, pfAvgHome, plus_minusAvgHome, awayTeamWinPCT, awayFGPCT, awayFG3PCT, awayFTPCT, oRebAvgAway, dRebAvgAway, rebAvgAway, astAvgAway, stlAvgAway, blkAvgAway, tovAvgAway, pfAvgAway, plus_minusAvgAway, homeH2HWins, awayH2HWins, winner)
nbaRS10

## # A tibble: 36,028 × 33
##    team_name_home team_name_away game_date           matchup_home homeTeamWinPCT
##    <chr>          <chr>          <dttm>              <chr>                 <dbl>
##  1 Milwaukee Buc… Detroit Pisto… 1985-11-13 00:00:00 MIL vs. DET           0.636
##  2 Milwaukee Buc… Chicago Bulls  1985-11-15 00:00:00 MIL vs. CHI           0.667
##  3 Portland Trai… New Jersey Ne… 1985-11-19 00:00:00 POR vs. BKN           0.636
##  4 Chicago Bulls  Indiana Pacers 1985-11-19 00:00:00 CHI vs. IND           0.364
##  5 Dallas Maveri… Phoenix Suns   1985-11-19 00:00:00 DAL vs. PHX           0.364
##  6 Phoenix Suns   San Antonio S… 1985-11-20 00:00:00 PHX vs. SAS           0.091
##  7 Denver Nuggets Los Angeles L… 1985-11-21 00:00:00 DEN vs. LAL           0.818
##  8 San Antonio S… Indiana Pacers 1985-11-22 00:00:00 SAS vs. IND           0.455
##  9 Detroit Pisto… Golden State … 1985-11-22 00:00:00 DET vs. GSW           0.545
## 10 Cleveland Cav… Utah Jazz      1985-11-22 00:00:00 CLE vs. UTA           0.364
## # ℹ 36,018 more rows
## # ℹ 28 more variables: homeFGPCT <dbl>, homeFG3PCT <dbl>, homeFTPCT <dbl>,
## #   oRebAvgHome <dbl>, dRebAvgHome <dbl>, rebAvgHome <dbl>, astAvgHome <dbl>,
## #   stlAvgHome <dbl>, blkAvgHome <dbl>, tovAvgHome <dbl>, pfAvgHome <dbl>,
## #   plus_minusAvgHome <dbl>, awayTeamWinPCT <dbl>, awayFGPCT <dbl>,
## #   awayFG3PCT <dbl>, awayFTPCT <dbl>, oRebAvgAway <dbl>, dRebAvgAway <dbl>,
## #   rebAvgAway <dbl>, astAvgAway <dbl>, stlAvgAway <dbl>, blkAvgAway <dbl>, …
…
